%YAML 1.1
%TAG !u! tag:unity3d.com,2011:
--- !u!74 &7400000
AnimationClip:
  m_ObjectHideFlags: 0
  m_PrefabParentObject: {fileID: 0}
  m_PrefabInternal: {fileID: 0}
  m_Name: flap
  serializedVersion: 6
  m_Legacy: 0
  m_Compressed: 0
  m_UseHighQualityCurve: 1
  m_RotationCurves:
  - curve:
      serializedVersion: 2
      m_Curve:
      - time: 0
        value: {x: 0, y: 0, z: .967643142, w: .252322644}
        inSlope: {x: 0, y: 0, z: 0, w: 0}
        outSlope: {x: -0, y: -0, z: .0967394784, w: -.437176168}
        tangentMode: 2
      - time: .166600004
        value: {x: 0, y: 0, z: .98375994, w: .179489091}
        inSlope: {x: 0, y: 0, z: .0967394784, w: -.437176168}
        outSlope: {x: -0, y: -0, z: -.0697960779, w: .32978043}
        tangentMode: 4
      - time: .333299994
        value: {x: 0, y: 0, z: .972124934, w: .234463483}
        inSlope: {x: 0, y: 0, z: -.0697960779, w: .32978043}
        outSlope: {x: 0, y: 0, z: 0, w: 0}
        tangentMode: 105500352
      m_PreInfinity: 2
      m_PostInfinity: 2
    path: hip/bone7/bone8
  - curve:
      serializedVersion: 2
      m_Curve:
      - time: 0
        value: {x: 0, y: 0, z: .966956973, w: -.254939616}
        inSlope: {x: 0, y: 0, z: 0, w: 0}
        outSlope: {x: -0, y: -0, z: -.0240450706, w: -.0884551182}
        tangentMode: 416998980
      - time: .166600004
        value: {x: 0, y: 0, z: .962951064, w: -.269676238}
        inSlope: {x: 0, y: 0, z: -.0240450706, w: -.0884551182}
        outSlope: {x: -0, y: -0, z: .0365097225, w: .136542648}
        tangentMode: 417001588
      - time: .333299994
        value: {x: 0, y: 0, z: .969037235, w: -.24691458}
        inSlope: {x: 0, y: 0, z: .0365097225, w: .136542648}
        outSlope: {x: 0, y: 0, z: 0, w: 0}
        tangentMode: 0
      m_PreInfinity: 2
      m_PostInfinity: 2
    path: hip/bone7/bone9
  - curve:
      serializedVersion: 2
      m_Curve:
      - time: 0
        value: {x: 0, y: 0, z: .782227755, w: .622992516}
        inSlope: {x: 0, y: 0, z: 0, w: 0}
        outSlope: {x: -0, y: -0, z: .0440487601, w: -.0559857897}
        tangentMode: 1
      - time: .166600004
        value: {x: 0, y: 0, z: .789566278, w: .613665283}
        inSlope: {x: 0, y: 0, z: .0440487601, w: -.0559857897}
        outSlope: {x: -0, y: -0, z: -.171869129, w: .211070538}
        tangentMode: 4
      - time: .333299994
        value: {x: 0, y: 0, z: .760915697, w: .648850739}
        inSlope: {x: 0, y: 0, z: -.171869129, w: .211070538}
        outSlope: {x: 0, y: 0, z: 0, w: 0}
        tangentMode: 3
      m_PreInfinity: 2
      m_PostInfinity: 2
    path: hip/bone2
  - curve:
      serializedVersion: 2
      m_Curve:
      - time: 0
        value: {x: 0, y: 0, z: -.351678222, w: .936120927}
        inSlope: {x: 0, y: 0, z: 0, w: 0}
        outSlope: {x: -0, y: -0, z: .411162913, w: .137732878}
        tangentMode: 1059028080
      - time: .166600004
        value: {x: 0, y: 0, z: -.283178478, w: .959067225}
        inSlope: {x: 0, y: 0, z: .411162913, w: .137732878}
        outSlope: {x: -0, y: -0, z: -.188325837, w: -.0589907244}
        tangentMode: 1058871595
      - time: .333299994
        value: {x: 0, y: 0, z: -.314572394, w: .949233472}
        inSlope: {x: 0, y: 0, z: -.188325837, w: -.0589907244}
        outSlope: {x: 0, y: 0, z: 0, w: 0}
        tangentMode: 1059461909
      m_PreInfinity: 2
      m_PostInfinity: 2
    path: hip/bone2/bone3
  - curve:
      serializedVersion: 2
      m_Curve:
      - time: 0
        value: {x: 0, y: 0, z: .991238594, w: .132083341}
        inSlope: {x: 0, y: 0, z: 0, w: 0}
        outSlope: {x: -0, y: -0, z: .0471695997, w: -.537801325}
        tangentMode: 2
      - time: .166600004
        value: {x: 0, y: 0, z: .999097049, w: .0424856357}
        inSlope: {x: 0, y: 0, z: .0471695997, w: -.537801325}
        outSlope: {x: -0, y: -0, z: -.0332631133, w: .425260276}
        tangentMode: 0
      - time: .333299994
        value: {x: 0, y: 0, z: .993552089, w: .113376521}
        inSlope: {x: 0, y: 0, z: -.0332631133, w: .425260276}
        outSlope: {x: 0, y: 0, z: 0, w: 0}
        tangentMode: 0
      m_PreInfinity: 2
      m_PostInfinity: 2
    path: hip/bone
  - curve:
      serializedVersion: 2
      m_Curve:
      - time: 0
        value: {x: 0, y: 0, z: .384939462, w: -.922941804}
        inSlope: {x: 0, y: 0, z: 0, w: 0}
        outSlope: {x: -0, y: -0, z: -.233521402, w: -.0917160213}
        tangentMode: 0
      - time: .166600004
        value: {x: 0, y: 0, z: .346034795, w: -.938221693}
        inSlope: {x: 0, y: 0, z: -.233521402, w: -.0917160213}
        outSlope: {x: -0, y: -0, z: -.425824255, w: -.139221728}
        tangentMode: -1143454512
      - time: .333299994
        value: {x: 0, y: 0, z: .275049895, w: -.961429954}
        inSlope: {x: 0, y: 0, z: -.425824255, w: -.139221728}
        outSlope: {x: 0, y: 0, z: 0, w: 0}
        tangentMode: 0
      m_PreInfinity: 2
      m_PostInfinity: 2
    path: hip/bone/bone5
  - curve:
      serializedVersion: 2
      m_Curve:
      - time: 0
        value: {x: 0, y: 0, z: .679825425, w: .733374}
        inSlope: {x: 0, y: 0, z: 0, w: 0}
        outSlope: {x: -0, y: -0, z: -.0161615871, w: .014926563}
        tangentMode: 1937007987
      - time: .166600004
        value: {x: 0, y: 0, z: .677132905, w: .735860765}
        inSlope: {x: 0, y: 0, z: -.0161615871, w: .014926563}
        outSlope: {x: -0, y: -0, z: -.0169796366, w: .0155644296}
        tangentMode: 1663984754
      - time: .333299994
        value: {x: 0, y: 0, z: .674302399, w: .738455355}
        inSlope: {x: 0, y: 0, z: -.0169796366, w: .0155644296}
        outSlope: {x: 0, y: 0, z: 0, w: 0}
        tangentMode: 0
      m_PreInfinity: 2
      m_PostInfinity: 2
    path: hip/bone7/bone13
  - curve:
      serializedVersion: 2
      m_Curve:
      - time: 0
        value: {x: 0, y: 0, z: -.300622821, w: -.9537431}
        inSlope: {x: 0, y: 0, z: 0, w: 0}
        outSlope: {x: -0, y: -0, z: -.0911875889, w: .0295450836}
        tangentMode: 44
      - time: .166600004
        value: {x: 0, y: 0, z: -.315814674, w: -.948820889}
        inSlope: {x: 0, y: 0, z: -.0911875889, w: .0295450836}
        outSlope: {x: -0, y: -0, z: .0811520666, w: -.0263719279}
        tangentMode: 59
      - time: .333299994
        value: {x: 0, y: 0, z: -.302286625, w: -.953217089}
        inSlope: {x: 0, y: 0, z: .0811520666, w: -.0263719279}
        outSlope: {x: 0, y: 0, z: 0, w: 0}
        tangentMode: 105634820
      m_PreInfinity: 2
      m_PostInfinity: 2
    path: hip/bone7/bone12
  - curve:
      serializedVersion: 2
      m_Curve:
      - time: 0
        value: {x: 0, y: 0, z: -.343167931, w: .939274073}
        inSlope: {x: 0, y: 0, z: 0, w: 0}
        outSlope: {x: 0, y: 0, z: 0, w: 0}
        tangentMode: 56
      m_PreInfinity: 2
      m_PostInfinity: 2
    path: hip/bone7
  - curve:
      serializedVersion: 2
      m_Curve:
      - time: 0
        value: {x: 0, y: 0, z: .572718322, w: .819752216}
        inSlope: {x: 0, y: 0, z: 0, w: 0}
        outSlope: {x: 0, y: 0, z: 0, w: 0}
        tangentMode: 20
      m_PreInfinity: 2
      m_PostInfinity: 2
    path: hip
  - curve:
      serializedVersion: 2
      m_Curve:
      - time: 0
        value: {x: 0, y: 0, z: .00392689509, w: -.999992311}
        inSlope: {x: 0, y: 0, z: 0, w: 0}
        outSlope: {x: 0, y: 0, z: 0, w: 0}
        tangentMode: 88
      m_PreInfinity: 2
      m_PostInfinity: 2
    path: hip/bone7/bone8/bone10
  - curve:
      serializedVersion: 2
      m_Curve:
      - time: 0
        value: {x: 0, y: 0, z: .0604387932, w: .998171926}
        inSlope: {x: 0, y: 0, z: 0, w: 0}
        outSlope: {x: 0, y: 0, z: 0, w: 0}
        tangentMode: 98586660
      m_PreInfinity: 2
      m_PostInfinity: 2
    path: hip/bone7/bone9/bone11
  - curve:
      serializedVersion: 2
      m_Curve:
      - time: 0
        value: {x: 0, y: 0, z: .560060799, w: .828451514}
        inSlope: {x: 0, y: 0, z: 0, w: 0}
        outSlope: {x: 0, y: 0, z: 0, w: 0}
        tangentMode: 44
      m_PreInfinity: 2
      m_PostInfinity: 2
    path: hip/bone2/bone3/bone4
  - curve:
      serializedVersion: 2
      m_Curve:
      - time: 0
        value: {x: 0, y: 0, z: .498790294, w: .866722703}
        inSlope: {x: 0, y: 0, z: 0, w: 0}
        outSlope: {x: 0, y: 0, z: 0, w: 0}
        tangentMode: 100915728
      m_PreInfinity: 2
      m_PostInfinity: 2
    path: hip/bone/bone5/bone6
  m_CompressedRotationCurves: []
  m_PositionCurves:
  - curve:
      serializedVersion: 2
      m_Curve:
      - time: 0
        value: {x: .421999991, y: .19219999, z: 0}
        inSlope: {x: 0, y: 0, z: 0}
        outSlope: {x: 0, y: 0, z: 0}
        tangentMode: 103386676
      m_PreInfinity: 2
      m_PostInfinity: 2
    path: hip/bone7/bone8
  - curve:
      serializedVersion: 2
      m_Curve:
      - time: 0
        value: {x: .502499998, y: -.140799999, z: 0}
        inSlope: {x: 0, y: 0, z: 0}
        outSlope: {x: 0, y: 0, z: 0}
        tangentMode: 101509560
      m_PreInfinity: 2
      m_PostInfinity: 2
    path: hip/bone7/bone9
  - curve:
      serializedVersion: 2
      m_Curve:
      - time: 0
        value: {x: -.00619999971, y: .0335999988, z: 0}
        inSlope: {x: 0, y: 0, z: 0}
        outSlope: {x: 0, y: 0, z: 0}
        tangentMode: 0
      m_PreInfinity: 2
      m_PostInfinity: 2
    path: hip/bone2
  - curve:
      serializedVersion: 2
      m_Curve:
      - time: 0
        value: {x: .333899975, y: -.000900000043, z: 0}
        inSlope: {x: 0, y: 0, z: 0}
        outSlope: {x: 0, y: 0, z: 0}
        tangentMode: 102563744
      m_PreInfinity: 2
      m_PostInfinity: 2
    path: hip/bone2/bone3
  - curve:
      serializedVersion: 2
      m_Curve:
      - time: 0
        value: {x: -.00129999989, y: .00769999949, z: 0}
        inSlope: {x: 0, y: 0, z: 0}
        outSlope: {x: 0, y: 0, z: 0}
        tangentMode: 102563744
      m_PreInfinity: 2
      m_PostInfinity: 2
    path: hip/bone
  - curve:
      serializedVersion: 2
      m_Curve:
      - time: 0
        value: {x: .345600009, y: -.00870000012, z: 0}
        inSlope: {x: 0, y: 0, z: 0}
        outSlope: {x: 0, y: 0, z: 0}
        tangentMode: 102563744
      m_PreInfinity: 2
      m_PostInfinity: 2
    path: hip/bone/bone5
  - curve:
      serializedVersion: 2
      m_Curve:
      - time: 0
        value: {x: .201399982, y: .00759999966, z: 0}
        inSlope: {x: 0, y: 0, z: 0}
        outSlope: {x: 0, y: 0, z: 0}
        tangentMode: 105631440
      m_PreInfinity: 2
      m_PostInfinity: 2
    path: hip/bone7/bone13
  - curve:
      serializedVersion: 2
      m_Curve:
      - time: 0
        value: {x: .621100008, y: .00970000029, z: 0}
        inSlope: {x: 0, y: 0, z: 0}
        outSlope: {x: 0, y: 0, z: 0}
        tangentMode: 102563744
      m_PreInfinity: 2
      m_PostInfinity: 2
    path: hip/bone7/bone12
  - curve:
      serializedVersion: 2
      m_Curve:
      - time: 0
        value: {x: .101300001, y: .0122999996, z: 0}
        inSlope: {x: 0, y: 0, z: 0}
        outSlope: {x: 0, y: 0, z: 0}
        tangentMode: 105636684
      m_PreInfinity: 2
      m_PostInfinity: 2
    path: hip/bone7
  - curve:
      serializedVersion: 2
      m_Curve:
      - time: 0
        value: {x: -.00159999996, y: .708000004, z: 0}
        inSlope: {x: 0, y: 0, z: 0}
        outSlope: {x: 0, y: 0, z: 0}
        tangentMode: 102563744
      m_PreInfinity: 2
      m_PostInfinity: 2
    path: hip
  - curve:
      serializedVersion: 2
      m_Curve:
      - time: 0
        value: {x: .377700001, y: -.00659999996, z: 0}
        inSlope: {x: 0, y: 0, z: 0}
        outSlope: {x: 0, y: 0, z: 0}
        tangentMode: 0
      m_PreInfinity: 2
      m_PostInfinity: 2
    path: hip/bone7/bone8/bone10
  - curve:
      serializedVersion: 2
      m_Curve:
      - time: 0
        value: {x: .370000005, y: -.000900000043, z: 0}
        inSlope: {x: 0, y: 0, z: 0}
        outSlope: {x: 0, y: 0, z: 0}
        tangentMode: 0
      m_PreInfinity: 2
      m_PostInfinity: 2
    path: hip/bone7/bone9/bone11
  - curve:
      serializedVersion: 2
      m_Curve:
      - time: 0
        value: {x: .255899996, y: -.00860000029, z: 0}
        inSlope: {x: 0, y: 0, z: 0}
        outSlope: {x: 0, y: 0, z: 0}
        tangentMode: 1528849767
      m_PreInfinity: 2
      m_PostInfinity: 2
    path: hip/bone2/bone3/bone4
  - curve:
      serializedVersion: 2
      m_Curve:
      - time: 0
        value: {x: .217900008, y: .00180000009, z: 0}
        inSlope: {x: 0, y: 0, z: 0}
        outSlope: {x: 0, y: 0, z: 0}
        tangentMode: 0
      m_PreInfinity: 2
      m_PostInfinity: 2
    path: hip/bone/bone5/bone6
  m_ScaleCurves:
  - curve:
      serializedVersion: 2
      m_Curve:
      - time: 0
        value: {x: 1, y: 1, z: 1}
        inSlope: {x: 0, y: 0, z: 0}
        outSlope: {x: 0, y: 0, z: 0}
        tangentMode: 102536284
      m_PreInfinity: 2
      m_PostInfinity: 2
    path: hip/bone7/bone8
  - curve:
      serializedVersion: 2
      m_Curve:
      - time: 0
        value: {x: 1, y: 1, z: 1}
        inSlope: {x: 0, y: 0, z: 0}
        outSlope: {x: 0, y: 0, z: 0}
        tangentMode: 105635792
      m_PreInfinity: 2
      m_PostInfinity: 2
    path: hip/bone7/bone9
  - curve:
      serializedVersion: 2
      m_Curve:
      - time: 0
        value: {x: 1, y: 1, z: 1}
        inSlope: {x: 0, y: 0, z: 0}
        outSlope: {x: 0, y: 0, z: 0}
        tangentMode: 39
      m_PreInfinity: 2
      m_PostInfinity: 2
    path: hip/bone2
  - curve:
      serializedVersion: 2
      m_Curve:
      - time: 0
        value: {x: 1, y: 1, z: 1}
        inSlope: {x: 0, y: 0, z: 0}
        outSlope: {x: 0, y: 0, z: 0}
        tangentMode: 0
      m_PreInfinity: 2
      m_PostInfinity: 2
    path: hip/bone2/bone3
  - curve:
      serializedVersion: 2
      m_Curve:
      - time: 0
        value: {x: 1, y: 1, z: 1}
        inSlope: {x: 0, y: 0, z: 0}
        outSlope: {x: 0, y: 0, z: 0}
        tangentMode: 0
      m_PreInfinity: 2
      m_PostInfinity: 2
    path: hip/bone
  - curve:
      serializedVersion: 2
      m_Curve:
      - time: 0
        value: {x: 1, y: 1, z: 1}
        inSlope: {x: 0, y: 0, z: 0}
        outSlope: {x: 0, y: 0, z: 0}
        tangentMode: 105611456
      m_PreInfinity: 2
      m_PostInfinity: 2
    path: hip/bone/bone5
  - curve:
      serializedVersion: 2
      m_Curve:
      - time: 0
        value: {x: 1, y: 1, z: 1}
        inSlope: {x: 0, y: 0, z: 0}
        outSlope: {x: 0, y: 0, z: 0}
        tangentMode: 101507020
      m_PreInfinity: 2
      m_PostInfinity: 2
    path: hip/bone7/bone13
  - curve:
      serializedVersion: 2
      m_Curve:
      - time: 0
        value: {x: 1, y: 1, z: 1}
        inSlope: {x: 0, y: 0, z: 0}
        outSlope: {x: 0, y: 0, z: 0}
        tangentMode: 101507020
      m_PreInfinity: 2
      m_PostInfinity: 2
    path: hip/bone7/bone12
  - curve:
      serializedVersion: 2
      m_Curve:
      - time: 0
        value: {x: 1, y: 1, z: 1}
        inSlope: {x: 0, y: 0, z: 0}
        outSlope: {x: 0, y: 0, z: 0}
        tangentMode: 105628320
      m_PreInfinity: 2
      m_PostInfinity: 2
    path: hip/bone7
  - curve:
      serializedVersion: 2
      m_Curve:
      - time: 0
        value: {x: 1, y: 1, z: 1}
        inSlope: {x: 0, y: 0, z: 0}
        outSlope: {x: 0, y: 0, z: 0}
        tangentMode: 105616292
      m_PreInfinity: 2
      m_PostInfinity: 2
    path: hip
  - curve:
      serializedVersion: 2
      m_Curve:
      - time: 0
        value: {x: 1, y: 1, z: 1}
        inSlope: {x: 0, y: 0, z: 0}
        outSlope: {x: 0, y: 0, z: 0}
        tangentMode: 1051371084
      m_PreInfinity: 2
      m_PostInfinity: 2
    path: hip/bone7/bone8/bone10
  - curve:
      serializedVersion: 2
      m_Curve:
      - time: 0
        value: {x: 1, y: 1, z: 1}
        inSlope: {x: 0, y: 0, z: 0}
        outSlope: {x: 0, y: 0, z: 0}
        tangentMode: 0
      m_PreInfinity: 2
      m_PostInfinity: 2
    path: hip/bone7/bone9/bone11
  - curve:
      serializedVersion: 2
      m_Curve:
      - time: 0
        value: {x: 1, y: 1, z: 1}
        inSlope: {x: 0, y: 0, z: 0}
        outSlope: {x: 0, y: 0, z: 0}
        tangentMode: 105611756
      m_PreInfinity: 2
      m_PostInfinity: 2
    path: hip/bone2/bone3/bone4
  - curve:
      serializedVersion: 2
      m_Curve:
      - time: 0
        value: {x: 1, y: 1, z: 1}
        inSlope: {x: 0, y: 0, z: 0}
        outSlope: {x: 0, y: 0, z: 0}
        tangentMode: 102536284
      m_PreInfinity: 2
      m_PostInfinity: 2
    path: hip/bone/bone5/bone6
  m_FloatCurves: []
  m_PPtrCurves: []
  m_SampleRate: 30
  m_WrapMode: 0
  m_Bounds:
    m_Center: {x: 0, y: 0, z: 0}
    m_Extent: {x: 0, y: 0, z: 0}
  m_ClipBindingConstant:
    genericBindings:
    - path: 3842533403
      attribute: 2
      script: {fileID: 0}
      classID: 4
      customType: 0
      isPPtrCurve: 0
    - path: 2450479245
      attribute: 2
      script: {fileID: 0}
      classID: 4
      customType: 0
      isPPtrCurve: 0
    - path: 3324444794
      attribute: 2
      script: {fileID: 0}
      classID: 4
      customType: 0
      isPPtrCurve: 0
    - path: 551722548
      attribute: 2
      script: {fileID: 0}
      classID: 4
      customType: 0
      isPPtrCurve: 0
    - path: 615757870
      attribute: 2
      script: {fileID: 0}
      classID: 4
      customType: 0
      isPPtrCurve: 0
    - path: 3865919496
      attribute: 2
      script: {fileID: 0}
      classID: 4
      customType: 0
      isPPtrCurve: 0
    - path: 915469398
      attribute: 2
      script: {fileID: 0}
      classID: 4
      customType: 0
      isPPtrCurve: 0
    - path: 1100465344
      attribute: 2
      script: {fileID: 0}
      classID: 4
      customType: 0
      isPPtrCurve: 0
    - path: 3842533403
      attribute: 1
      script: {fileID: 0}
      classID: 4
      customType: 0
      isPPtrCurve: 0
    - path: 2450479245
      attribute: 1
      script: {fileID: 0}
      classID: 4
      customType: 0
      isPPtrCurve: 0
    - path: 3324444794
      attribute: 1
      script: {fileID: 0}
      classID: 4
      customType: 0
      isPPtrCurve: 0
    - path: 551722548
      attribute: 1
      script: {fileID: 0}
      classID: 4
      customType: 0
      isPPtrCurve: 0
    - path: 615757870
      attribute: 1
      script: {fileID: 0}
      classID: 4
      customType: 0
      isPPtrCurve: 0
    - path: 3865919496
      attribute: 1
      script: {fileID: 0}
      classID: 4
      customType: 0
      isPPtrCurve: 0
    - path: 915469398
      attribute: 1
      script: {fileID: 0}
      classID: 4
      customType: 0
      isPPtrCurve: 0
    - path: 1100465344
      attribute: 1
      script: {fileID: 0}
      classID: 4
      customType: 0
      isPPtrCurve: 0
    - path: 3058562293
      attribute: 1
      script: {fileID: 0}
      classID: 4
      customType: 0
      isPPtrCurve: 0
    - path: 1572856408
      attribute: 1
      script: {fileID: 0}
      classID: 4
      customType: 0
      isPPtrCurve: 0
    - path: 3741964779
      attribute: 1
      script: {fileID: 0}
      classID: 4
      customType: 0
      isPPtrCurve: 0
    - path: 1688529379
      attribute: 1
      script: {fileID: 0}
      classID: 4
      customType: 0
      isPPtrCurve: 0
    - path: 152980444
      attribute: 1
      script: {fileID: 0}
      classID: 4
      customType: 0
      isPPtrCurve: 0
    - path: 2188730497
      attribute: 1
      script: {fileID: 0}
      classID: 4
      customType: 0
      isPPtrCurve: 0
    - path: 3058562293
      attribute: 2
      script: {fileID: 0}
      classID: 4
      customType: 0
      isPPtrCurve: 0
    - path: 1572856408
      attribute: 2
      script: {fileID: 0}
      classID: 4
      customType: 0
      isPPtrCurve: 0
    - path: 3741964779
      attribute: 2
      script: {fileID: 0}
      classID: 4
      customType: 0
      isPPtrCurve: 0
    - path: 1688529379
      attribute: 2
      script: {fileID: 0}
      classID: 4
      customType: 0
      isPPtrCurve: 0
    - path: 152980444
      attribute: 2
      script: {fileID: 0}
      classID: 4
      customType: 0
      isPPtrCurve: 0
    - path: 2188730497
      attribute: 2
      script: {fileID: 0}
      classID: 4
      customType: 0
      isPPtrCurve: 0
    - path: 3842533403
      attribute: 3
      script: {fileID: 0}
      classID: 4
      customType: 0
      isPPtrCurve: 0
    - path: 2450479245
      attribute: 3
      script: {fileID: 0}
      classID: 4
      customType: 0
      isPPtrCurve: 0
    - path: 3324444794
      attribute: 3
      script: {fileID: 0}
      classID: 4
      customType: 0
      isPPtrCurve: 0
    - path: 551722548
      attribute: 3
      script: {fileID: 0}
      classID: 4
      customType: 0
      isPPtrCurve: 0
    - path: 615757870
      attribute: 3
      script: {fileID: 0}
      classID: 4
      customType: 0
      isPPtrCurve: 0
    - path: 3865919496
      attribute: 3
      script: {fileID: 0}
      classID: 4
      customType: 0
      isPPtrCurve: 0
    - path: 915469398
      attribute: 3
      script: {fileID: 0}
      classID: 4
      customType: 0
      isPPtrCurve: 0
    - path: 1100465344
      attribute: 3
      script: {fileID: 0}
      classID: 4
      customType: 0
      isPPtrCurve: 0
    - path: 3058562293
      attribute: 3
      script: {fileID: 0}
      classID: 4
      customType: 0
      isPPtrCurve: 0
    - path: 1572856408
      attribute: 3
      script: {fileID: 0}
      classID: 4
      customType: 0
      isPPtrCurve: 0
    - path: 3741964779
      attribute: 3
      script: {fileID: 0}
      classID: 4
      customType: 0
      isPPtrCurve: 0
    - path: 1688529379
      attribute: 3
      script: {fileID: 0}
      classID: 4
      customType: 0
      isPPtrCurve: 0
    - path: 152980444
      attribute: 3
      script: {fileID: 0}
      classID: 4
      customType: 0
      isPPtrCurve: 0
    - path: 2188730497
      attribute: 3
      script: {fileID: 0}
      classID: 4
      customType: 0
      isPPtrCurve: 0
    pptrCurveMapping: []
  m_AnimationClipSettings:
    serializedVersion: 2
    m_StartTime: 0
    m_StopTime: .333299994
    m_OrientationOffsetY: 0
    m_Level: 0
    m_CycleOffset: 0
    m_LoopTime: 1
    m_LoopBlend: 0
    m_LoopBlendOrientation: 0
    m_LoopBlendPositionY: 0
    m_LoopBlendPositionXZ: 0
    m_KeepOriginalOrientation: 0
    m_KeepOriginalPositionY: 1
    m_KeepOriginalPositionXZ: 0
    m_HeightFromFeet: 0
    m_Mirror: 0
  m_EditorCurves: []
  m_EulerEditorCurves: []
  m_HasGenericRootTransform: 0
  m_HasMotionFloatCurves: 0
  m_GenerateMotionCurves: 0
  m_Events: []
