%YAML 1.1
%TAG !u! tag:unity3d.com,2011:
--- !u!74 &7400000
AnimationClip:
  m_ObjectHideFlags: 0
  m_PrefabParentObject: {fileID: 0}
  m_PrefabInternal: {fileID: 0}
  m_Name: Flyy
  serializedVersion: 6
  m_Legacy: 0
  m_Compressed: 0
  m_UseHighQualityCurve: 1
  m_RotationCurves:
  - curve:
      serializedVersion: 2
      m_Curve:
      - time: 0
        value: {x: 0, y: 0, z: -.116064243, w: -.993241727}
        inSlope: {x: 0, y: 0, z: 0, w: 0}
        outSlope: {x: 0, y: 0, z: 0, w: 0}
        tangentMode: 0
      m_PreInfinity: 2
      m_PostInfinity: 2
    path: hip/bone7/bone12
  - curve:
      serializedVersion: 2
      m_Curve:
      - time: 0
        value: {x: 0, y: 0, z: .98779732, w: .155744717}
        inSlope: {x: 7.03736171e+22, y: NaN, z: NaN, w: 8.12753109e-44}
        outSlope: {x: 0, y: 0, z: -.0058114524, w: .0379979573}
        tangentMode: 0
      - time: .13333334
        value: {x: 0, y: 0, z: .985732853, w: .168317229}
        inSlope: {x: 0, y: 0, z: -.00670552207, w: .0369921289}
        outSlope: {x: 0, y: 0, z: 0, w: 3.38719201}
        tangentMode: 0
      m_PreInfinity: 2
      m_PostInfinity: 2
    path: hip/bone7/bone8
  - curve:
      serializedVersion: 2
      m_Curve:
      - time: 0
        value: {x: 0, y: 0, z: .993201137, w: .116410673}
        inSlope: {x: 7.03736171e+22, y: NaN, z: NaN, w: 8.12753109e-44}
        outSlope: {x: 0, y: 0, z: -.00804662704, w: .0728666708}
        tangentMode: 0
      - time: .0666666701
        value: {x: 0, y: 0, z: .99168241, w: .128708974}
        inSlope: {x: 0, y: 0, z: -.00983476546, w: .0726431534}
        outSlope: {x: 0, y: 0, z: -.0455975495, w: .351145834}
        tangentMode: 0
      - time: .13333334
        value: {x: 0, y: 0, z: .982417822, w: .186695576}
        inSlope: {x: 0, y: 0, z: -.0661611557, w: .347793072}
        outSlope: {x: 0, y: 0, z: .0652670935, w: -.344216853}
        tangentMode: 0
      - time: .200000003
        value: {x: 0, y: 0, z: .991592288, w: .12940146}
        inSlope: {x: 0, y: 0, z: .045597557, w: -.345781475}
        outSlope: {x: 0, y: 0, z: .0107288342, w: -.0797957033}
        tangentMode: 0
      - time: .266666681
        value: {x: 0, y: 0, z: .993201137, w: .116410673}
        inSlope: {x: 0, y: 0, z: .00894069485, w: -.079907462}
        outSlope: {x: 0, y: 0, z: 0, w: 3.38719201}
        tangentMode: 0
      m_PreInfinity: 2
      m_PostInfinity: 2
    path: hip/bone2
  - curve:
      serializedVersion: 2
      m_Curve:
      - time: 0
        value: {x: 0, y: 0, z: .878983498, w: -.476852179}
        inSlope: {x: 7.03736171e+22, y: NaN, z: NaN, w: 8.12753109e-44}
        outSlope: {x: 0, y: 0, z: -.0509619676, w: -.0943243429}
        tangentMode: 0
      - time: .0666666701
        value: {x: 0, y: 0, z: .870484531, w: -.492195785}
        inSlope: {x: 0, y: 0, z: -.0509619676, w: -.0903010294}
        outSlope: {x: 0, y: 0, z: -.065267086, w: -.11533498}
        tangentMode: 0
      - time: .13333334
        value: {x: 0, y: 0, z: .859718323, w: -.510768414}
        inSlope: {x: 0, y: 0, z: -.067949295, w: -.113546841}
        outSlope: {x: 0, y: 0, z: .222623363, w: .374615222}
        tangentMode: 0
      - time: .200000003
        value: {x: 0, y: 0, z: .894154012, w: -.447759569}
        inSlope: {x: 0, y: 0, z: .192224994, w: .383555919}
        outSlope: {x: 0, y: 0, z: -.0885128826, w: -.175684661}
        tangentMode: 0
      - time: .266666681
        value: {x: 0, y: 0, z: .878983498, w: -.476852179}
        inSlope: {x: 0, y: 0, z: -.0938773006, w: -.173002452}
        outSlope: {x: 0, y: 0, z: 0, w: 3.38719201}
        tangentMode: 0
      m_PreInfinity: 2
      m_PostInfinity: 2
    path: hip/bone
  - curve:
      serializedVersion: 2
      m_Curve:
      - time: 0
        value: {x: 0, y: 0, z: .225716025, w: -.974193156}
        inSlope: {x: 7.03736171e+22, y: NaN, z: NaN, w: 8.12753109e-44}
        outSlope: {x: 0, y: 0, z: -.647976935, w: -.15020369}
        tangentMode: 0
      - time: .0666666701
        value: {x: 0, y: 0, z: .117623776, w: -.993058205}
        inSlope: {x: 0, y: 0, z: -.65702939, w: -.077784054}
        outSlope: {x: 0, y: 0, z: -.205971316, w: -.0245869178}
        tangentMode: 0
      - time: .200000003
        value: {x: 0, y: 0, z: .0490236729, w: -.998797596}
        inSlope: {x: 0, y: 0, z: -.207172722, w: -.00983476732}
        outSlope: {x: 0, y: 0, z: 1.07511866, w: .0527501032}
        tangentMode: 0
      - time: .266666681
        value: {x: 0, y: 0, z: .225716025, w: -.974193156}
        inSlope: {x: 0, y: 0, z: 1.04159105, w: .241398767}
        outSlope: {x: 0, y: 0, z: 0, w: 3.38719201}
        tangentMode: 0
      m_PreInfinity: 2
      m_PostInfinity: 2
    path: hip/bone/bone5
  - curve:
      serializedVersion: 2
      m_Curve:
      - time: 0
        value: {x: 0, y: 0, z: .232851356, w: .972512364}
        inSlope: {x: 7.03736171e+22, y: NaN, z: NaN, w: 8.12753109e-44}
        outSlope: {x: 0, y: 0, z: .267550349, w: -.0643730164}
        tangentMode: 0
      - time: .0666666701
        value: {x: 0, y: 0, z: .276979327, w: .960875869}
        inSlope: {x: 0, y: 0, z: .264644623, w: -.0759959146}
        outSlope: {x: 0, y: 0, z: -.23245813, w: .0670552328}
        tangentMode: 0
      - time: .200000003
        value: {x: 0, y: 0, z: .199025884, w: .979994237}
        inSlope: {x: 0, y: 0, z: -.236481443, w: .0478327312}
        outSlope: {x: 0, y: 0, z: .204741925, w: -.0420212671}
        tangentMode: 0
      - time: .266666681
        value: {x: 0, y: 0, z: .232851356, w: .972512364}
        inSlope: {x: 0, y: 0, z: .202953786, w: -.0482797548}
        outSlope: {x: 0, y: 0, z: 0, w: 3.38719201}
        tangentMode: 0
      m_PreInfinity: 2
      m_PostInfinity: 2
    path: hip/bone2/bone3
  - curve:
      serializedVersion: 2
      m_Curve:
      - time: 0
        value: {x: 0, y: 0, z: .722665668, w: .691197753}
        inSlope: {x: 0, y: 3.28102265e-39, z: 0, w: 2.00343037}
        outSlope: {x: 0, y: 0, z: .0464916192, w: -.0482797585}
        tangentMode: 0
      - time: .0666666701
        value: {x: 0, y: 0, z: .730341196, w: .683082521}
        inSlope: {x: 0, y: 0, z: .0455975495, w: -.0491738282}
        outSlope: {x: 0, y: 0, z: -.114440911, w: .122487538}
        tangentMode: 0
      - time: .13333334
        value: {x: 0, y: 0, z: .711045086, w: .703146458}
        inSlope: {x: 0, y: 0, z: -.11712312, w: .118911259}
        outSlope: {x: 0, y: 0, z: .0438094176, w: -.0447034873}
        tangentMode: 0
      - time: .200000003
        value: {x: 0, y: 0, z: .718308508, w: .695724726}
        inSlope: {x: 0, y: 0, z: .0438094176, w: -.0447034873}
        outSlope: {x: 0, y: 0, z: .0268220864, w: -.0277161561}
        tangentMode: 0
      - time: .266666681
        value: {x: 0, y: 0, z: .722665668, w: .691197753}
        inSlope: {x: 0, y: 0, z: .0268220864, w: -.0277161561}
        outSlope: {x: 1.40129846e-45, y: 3.28116838e-39, z: 0, w: 3.38719201}
        tangentMode: 0
      m_PreInfinity: 2
      m_PostInfinity: 2
    path: hip/bone7/bone13
  - curve:
      serializedVersion: 2
      m_Curve:
      - time: 0
        value: {x: 0, y: 0, z: .972288311, w: -.233785003}
        inSlope: {x: 7.03736171e+22, y: NaN, z: NaN, w: 8.12753109e-44}
        outSlope: {x: 0, y: 0, z: .027716158, w: .115670256}
        tangentMode: 0
      - time: .13333334
        value: {x: 0, y: 0, z: .980751157, w: -.195261732}
        inSlope: {x: 0, y: 0, z: .0232458096, w: .116564326}
        outSlope: {x: 0, y: 0, z: -.0232458096, w: -.116564326}
        tangentMode: 0
      - time: .266666681
        value: {x: 0, y: 0, z: .972288311, w: -.233785003}
        inSlope: {x: 0, y: 0, z: -.027716158, w: -.115670256}
        outSlope: {x: 0, y: 0, z: 0, w: 3.38719201}
        tangentMode: 0
      m_PreInfinity: 2
      m_PostInfinity: 2
    path: hip/bone7/bone9
  m_CompressedRotationCurves: []
  m_PositionCurves: []
  m_ScaleCurves: []
  m_FloatCurves: []
  m_PPtrCurves: []
  m_SampleRate: 30
  m_WrapMode: 0
  m_Bounds:
    m_Center: {x: 0, y: 0, z: 0}
    m_Extent: {x: 0, y: 0, z: 0}
  m_ClipBindingConstant:
    genericBindings:
    - path: 3842533403
      attribute: 2
      script: {fileID: 0}
      classID: 4
      customType: 0
      isPPtrCurve: 0
    - path: 3324444794
      attribute: 2
      script: {fileID: 0}
      classID: 4
      customType: 0
      isPPtrCurve: 0
    - path: 615757870
      attribute: 2
      script: {fileID: 0}
      classID: 4
      customType: 0
      isPPtrCurve: 0
    - path: 3865919496
      attribute: 2
      script: {fileID: 0}
      classID: 4
      customType: 0
      isPPtrCurve: 0
    - path: 551722548
      attribute: 2
      script: {fileID: 0}
      classID: 4
      customType: 0
      isPPtrCurve: 0
    - path: 915469398
      attribute: 2
      script: {fileID: 0}
      classID: 4
      customType: 0
      isPPtrCurve: 0
    - path: 2450479245
      attribute: 2
      script: {fileID: 0}
      classID: 4
      customType: 0
      isPPtrCurve: 0
    - path: 1100465344
      attribute: 2
      script: {fileID: 0}
      classID: 4
      customType: 0
      isPPtrCurve: 0
    pptrCurveMapping: []
  m_AnimationClipSettings:
    serializedVersion: 2
    m_StartTime: 0
    m_StopTime: .266666681
    m_OrientationOffsetY: 0
    m_Level: 0
    m_CycleOffset: 0
    m_LoopTime: 1
    m_LoopBlend: 1
    m_LoopBlendOrientation: 0
    m_LoopBlendPositionY: 0
    m_LoopBlendPositionXZ: 0
    m_KeepOriginalOrientation: 0
    m_KeepOriginalPositionY: 1
    m_KeepOriginalPositionXZ: 0
    m_HeightFromFeet: 0
    m_Mirror: 0
  m_EditorCurves:
  - curve:
      serializedVersion: 2
      m_Curve:
      - time: 0
        value: 0
        inSlope: 0
        outSlope: 0
        tangentMode: 0
      m_PreInfinity: 2
      m_PostInfinity: 2
    attribute: m_LocalRotation.x
    path: hip/bone7/bone12
    classID: 4
    script: {fileID: 0}
  - curve:
      serializedVersion: 2
      m_Curve:
      - time: 0
        value: 0
        inSlope: 0
        outSlope: 0
        tangentMode: 0
      m_PreInfinity: 2
      m_PostInfinity: 2
    attribute: m_LocalRotation.y
    path: hip/bone7/bone12
    classID: 4
    script: {fileID: 0}
  - curve:
      serializedVersion: 2
      m_Curve:
      - time: 0
        value: -.116064243
        inSlope: 0
        outSlope: 0
        tangentMode: 0
      m_PreInfinity: 2
      m_PostInfinity: 2
    attribute: m_LocalRotation.z
    path: hip/bone7/bone12
    classID: 4
    script: {fileID: 0}
  - curve:
      serializedVersion: 2
      m_Curve:
      - time: 0
        value: -.993241727
        inSlope: 0
        outSlope: 0
        tangentMode: 0
      m_PreInfinity: 2
      m_PostInfinity: 2
    attribute: m_LocalRotation.w
    path: hip/bone7/bone12
    classID: 4
    script: {fileID: 0}
  - curve:
      serializedVersion: 2
      m_Curve:
      - time: 0
        value: 0
        inSlope: 7.03736171e+22
        outSlope: 0
        tangentMode: 0
      - time: .13333334
        value: 0
        inSlope: 0
        outSlope: 0
        tangentMode: 0
      m_PreInfinity: 2
      m_PostInfinity: 2
    attribute: m_LocalRotation.x
    path: hip/bone7/bone8
    classID: 4
    script: {fileID: 0}
  - curve:
      serializedVersion: 2
      m_Curve:
      - time: 0
        value: 0
        inSlope: NaN
        outSlope: 0
        tangentMode: 0
      - time: .13333334
        value: 0
        inSlope: 0
        outSlope: 0
        tangentMode: 0
      m_PreInfinity: 2
      m_PostInfinity: 2
    attribute: m_LocalRotation.y
    path: hip/bone7/bone8
    classID: 4
    script: {fileID: 0}
  - curve:
      serializedVersion: 2
      m_Curve:
      - time: 0
        value: .98779732
        inSlope: NaN
        outSlope: -.0058114524
        tangentMode: 0
      - time: .13333334
        value: .985732853
        inSlope: -.00670552207
        outSlope: 0
        tangentMode: 0
      m_PreInfinity: 2
      m_PostInfinity: 2
    attribute: m_LocalRotation.z
    path: hip/bone7/bone8
    classID: 4
    script: {fileID: 0}
  - curve:
      serializedVersion: 2
      m_Curve:
      - time: 0
        value: .155744717
        inSlope: 8.12753109e-44
        outSlope: .0379979573
        tangentMode: 0
      - time: .13333334
        value: .168317229
        inSlope: .0369921289
        outSlope: 3.38719201
        tangentMode: 0
      m_PreInfinity: 2
      m_PostInfinity: 2
    attribute: m_LocalRotation.w
    path: hip/bone7/bone8
    classID: 4
    script: {fileID: 0}
  - curve:
      serializedVersion: 2
      m_Curve:
      - time: 0
        value: 0
        inSlope: 7.03736171e+22
        outSlope: 0
        tangentMode: 0
      - time: .0666666701
        value: 0
        inSlope: 0
        outSlope: 0
        tangentMode: 0
      - time: .13333334
        value: 0
        inSlope: 0
        outSlope: 0
        tangentMode: 0
      - time: .200000003
        value: 0
        inSlope: 0
        outSlope: 0
        tangentMode: 0
      - time: .266666681
        value: 0
        inSlope: 0
        outSlope: 0
        tangentMode: 0
      m_PreInfinity: 2
      m_PostInfinity: 2
    attribute: m_LocalRotation.x
    path: hip/bone2
    classID: 4
    script: {fileID: 0}
  - curve:
      serializedVersion: 2
      m_Curve:
      - time: 0
        value: 0
        inSlope: NaN
        outSlope: 0
        tangentMode: 0
      - time: .0666666701
        value: 0
        inSlope: 0
        outSlope: 0
        tangentMode: 0
      - time: .13333334
        value: 0
        inSlope: 0
        outSlope: 0
        tangentMode: 0
      - time: .200000003
        value: 0
        inSlope: 0
        outSlope: 0
        tangentMode: 0
      - time: .266666681
        value: 0
        inSlope: 0
        outSlope: 0
        tangentMode: 0
      m_PreInfinity: 2
      m_PostInfinity: 2
    attribute: m_LocalRotation.y
    path: hip/bone2
    classID: 4
    script: {fileID: 0}
  - curve:
      serializedVersion: 2
      m_Curve:
      - time: 0
        value: .993201137
        inSlope: NaN
        outSlope: -.00804662704
        tangentMode: 0
      - time: .0666666701
        value: .99168241
        inSlope: -.00983476546
        outSlope: -.0455975495
        tangentMode: 0
      - time: .13333334
        value: .982417822
        inSlope: -.0661611557
        outSlope: .0652670935
        tangentMode: 0
      - time: .200000003
        value: .991592288
        inSlope: .045597557
        outSlope: .0107288342
        tangentMode: 0
      - time: .266666681
        value: .993201137
        inSlope: .00894069485
        outSlope: 0
        tangentMode: 0
      m_PreInfinity: 2
      m_PostInfinity: 2
    attribute: m_LocalRotation.z
    path: hip/bone2
    classID: 4
    script: {fileID: 0}
  - curve:
      serializedVersion: 2
      m_Curve:
      - time: 0
        value: .116410673
        inSlope: 8.12753109e-44
        outSlope: .0728666708
        tangentMode: 0
      - time: .0666666701
        value: .128708974
        inSlope: .0726431534
        outSlope: .351145834
        tangentMode: 0
      - time: .13333334
        value: .186695576
        inSlope: .347793072
        outSlope: -.344216853
        tangentMode: 0
      - time: .200000003
        value: .12940146
        inSlope: -.345781475
        outSlope: -.0797957033
        tangentMode: 0
      - time: .266666681
        value: .116410673
        inSlope: -.079907462
        outSlope: 3.38719201
        tangentMode: 0
      m_PreInfinity: 2
      m_PostInfinity: 2
    attribute: m_LocalRotation.w
    path: hip/bone2
    classID: 4
    script: {fileID: 0}
  - curve:
      serializedVersion: 2
      m_Curve:
      - time: 0
        value: 0
        inSlope: 7.03736171e+22
        outSlope: 0
        tangentMode: 0
      - time: .0666666701
        value: 0
        inSlope: 0
        outSlope: 0
        tangentMode: 0
      - time: .13333334
        value: 0
        inSlope: 0
        outSlope: 0
        tangentMode: 0
      - time: .200000003
        value: 0
        inSlope: 0
        outSlope: 0
        tangentMode: 0
      - time: .266666681
        value: 0
        inSlope: 0
        outSlope: 0
        tangentMode: 0
      m_PreInfinity: 2
      m_PostInfinity: 2
    attribute: m_LocalRotation.x
    path: hip/bone
    classID: 4
    script: {fileID: 0}
  - curve:
      serializedVersion: 2
      m_Curve:
      - time: 0
        value: 0
        inSlope: NaN
        outSlope: 0
        tangentMode: 0
      - time: .0666666701
        value: 0
        inSlope: 0
        outSlope: 0
        tangentMode: 0
      - time: .13333334
        value: 0
        inSlope: 0
        outSlope: 0
        tangentMode: 0
      - time: .200000003
        value: 0
        inSlope: 0
        outSlope: 0
        tangentMode: 0
      - time: .266666681
        value: 0
        inSlope: 0
        outSlope: 0
        tangentMode: 0
      m_PreInfinity: 2
      m_PostInfinity: 2
    attribute: m_LocalRotation.y
    path: hip/bone
    classID: 4
    script: {fileID: 0}
  - curve:
      serializedVersion: 2
      m_Curve:
      - time: 0
        value: .878983498
        inSlope: NaN
        outSlope: -.0509619676
        tangentMode: 0
      - time: .0666666701
        value: .870484531
        inSlope: -.0509619676
        outSlope: -.065267086
        tangentMode: 0
      - time: .13333334
        value: .859718323
        inSlope: -.067949295
        outSlope: .222623363
        tangentMode: 0
      - time: .200000003
        value: .894154012
        inSlope: .192224994
        outSlope: -.0885128826
        tangentMode: 0
      - time: .266666681
        value: .878983498
        inSlope: -.0938773006
        outSlope: 0
        tangentMode: 0
      m_PreInfinity: 2
      m_PostInfinity: 2
    attribute: m_LocalRotation.z
    path: hip/bone
    classID: 4
    script: {fileID: 0}
  - curve:
      serializedVersion: 2
      m_Curve:
      - time: 0
        value: -.476852179
        inSlope: 8.12753109e-44
        outSlope: -.0943243429
        tangentMode: 0
      - time: .0666666701
        value: -.492195785
        inSlope: -.0903010294
        outSlope: -.11533498
        tangentMode: 0
      - time: .13333334
        value: -.510768414
        inSlope: -.113546841
        outSlope: .374615222
        tangentMode: 0
      - time: .200000003
        value: -.447759569
        inSlope: .383555919
        outSlope: -.175684661
        tangentMode: 0
      - time: .266666681
        value: -.476852179
        inSlope: -.173002452
        outSlope: 3.38719201
        tangentMode: 0
      m_PreInfinity: 2
      m_PostInfinity: 2
    attribute: m_LocalRotation.w
    path: hip/bone
    classID: 4
    script: {fileID: 0}
  - curve:
      serializedVersion: 2
      m_Curve:
      - time: 0
        value: 0
        inSlope: 7.03736171e+22
        outSlope: 0
        tangentMode: 0
      - time: .0666666701
        value: 0
        inSlope: 0
        outSlope: 0
        tangentMode: 0
      - time: .200000003
        value: 0
        inSlope: 0
        outSlope: 0
        tangentMode: 0
      - time: .266666681
        value: 0
        inSlope: 0
        outSlope: 0
        tangentMode: 0
      m_PreInfinity: 2
      m_PostInfinity: 2
    attribute: m_LocalRotation.x
    path: hip/bone/bone5
    classID: 4
    script: {fileID: 0}
  - curve:
      serializedVersion: 2
      m_Curve:
      - time: 0
        value: 0
        inSlope: NaN
        outSlope: 0
        tangentMode: 0
      - time: .0666666701
        value: 0
        inSlope: 0
        outSlope: 0
        tangentMode: 0
      - time: .200000003
        value: 0
        inSlope: 0
        outSlope: 0
        tangentMode: 0
      - time: .266666681
        value: 0
        inSlope: 0
        outSlope: 0
        tangentMode: 0
      m_PreInfinity: 2
      m_PostInfinity: 2
    attribute: m_LocalRotation.y
    path: hip/bone/bone5
    classID: 4
    script: {fileID: 0}
  - curve:
      serializedVersion: 2
      m_Curve:
      - time: 0
        value: .225716025
        inSlope: NaN
        outSlope: -.647976935
        tangentMode: 0
      - time: .0666666701
        value: .117623776
        inSlope: -.65702939
        outSlope: -.205971316
        tangentMode: 0
      - time: .200000003
        value: .0490236729
        inSlope: -.207172722
        outSlope: 1.07511866
        tangentMode: 0
      - time: .266666681
        value: .225716025
        inSlope: 1.04159105
        outSlope: 0
        tangentMode: 0
      m_PreInfinity: 2
      m_PostInfinity: 2
    attribute: m_LocalRotation.z
    path: hip/bone/bone5
    classID: 4
    script: {fileID: 0}
  - curve:
      serializedVersion: 2
      m_Curve:
      - time: 0
        value: -.974193156
        inSlope: 8.12753109e-44
        outSlope: -.15020369
        tangentMode: 0
      - time: .0666666701
        value: -.993058205
        inSlope: -.077784054
        outSlope: -.0245869178
        tangentMode: 0
      - time: .200000003
        value: -.998797596
        inSlope: -.00983476732
        outSlope: .0527501032
        tangentMode: 0
      - time: .266666681
        value: -.974193156
        inSlope: .241398767
        outSlope: 3.38719201
        tangentMode: 0
      m_PreInfinity: 2
      m_PostInfinity: 2
    attribute: m_LocalRotation.w
    path: hip/bone/bone5
    classID: 4
    script: {fileID: 0}
  - curve:
      serializedVersion: 2
      m_Curve:
      - time: 0
        value: 0
        inSlope: 7.03736171e+22
        outSlope: 0
        tangentMode: 0
      - time: .0666666701
        value: 0
        inSlope: 0
        outSlope: 0
        tangentMode: 0
      - time: .200000003
        value: 0
        inSlope: 0
        outSlope: 0
        tangentMode: 0
      - time: .266666681
        value: 0
        inSlope: 0
        outSlope: 0
        tangentMode: 0
      m_PreInfinity: 2
      m_PostInfinity: 2
    attribute: m_LocalRotation.x
    path: hip/bone2/bone3
    classID: 4
    script: {fileID: 0}
  - curve:
      serializedVersion: 2
      m_Curve:
      - time: 0
        value: 0
        inSlope: NaN
        outSlope: 0
        tangentMode: 0
      - time: .0666666701
        value: 0
        inSlope: 0
        outSlope: 0
        tangentMode: 0
      - time: .200000003
        value: 0
        inSlope: 0
        outSlope: 0
        tangentMode: 0
      - time: .266666681
        value: 0
        inSlope: 0
        outSlope: 0
        tangentMode: 0
      m_PreInfinity: 2
      m_PostInfinity: 2
    attribute: m_LocalRotation.y
    path: hip/bone2/bone3
    classID: 4
    script: {fileID: 0}
  - curve:
      serializedVersion: 2
      m_Curve:
      - time: 0
        value: .232851356
        inSlope: NaN
        outSlope: .267550349
        tangentMode: 0
      - time: .0666666701
        value: .276979327
        inSlope: .264644623
        outSlope: -.23245813
        tangentMode: 0
      - time: .200000003
        value: .199025884
        inSlope: -.236481443
        outSlope: .204741925
        tangentMode: 0
      - time: .266666681
        value: .232851356
        inSlope: .202953786
        outSlope: 0
        tangentMode: 0
      m_PreInfinity: 2
      m_PostInfinity: 2
    attribute: m_LocalRotation.z
    path: hip/bone2/bone3
    classID: 4
    script: {fileID: 0}
  - curve:
      serializedVersion: 2
      m_Curve:
      - time: 0
        value: .972512364
        inSlope: 8.12753109e-44
        outSlope: -.0643730164
        tangentMode: 0
      - time: .0666666701
        value: .960875869
        inSlope: -.0759959146
        outSlope: .0670552328
        tangentMode: 0
      - time: .200000003
        value: .979994237
        inSlope: .0478327312
        outSlope: -.0420212671
        tangentMode: 0
      - time: .266666681
        value: .972512364
        inSlope: -.0482797548
        outSlope: 3.38719201
        tangentMode: 0
      m_PreInfinity: 2
      m_PostInfinity: 2
    attribute: m_LocalRotation.w
    path: hip/bone2/bone3
    classID: 4
    script: {fileID: 0}
  - curve:
      serializedVersion: 2
      m_Curve:
      - time: 0
        value: 0
        inSlope: 0
        outSlope: 0
        tangentMode: 0
      - time: .0666666701
        value: 0
        inSlope: 0
        outSlope: 0
        tangentMode: 0
      - time: .13333334
        value: 0
        inSlope: 0
        outSlope: 0
        tangentMode: 0
      - time: .200000003
        value: 0
        inSlope: 0
        outSlope: 0
        tangentMode: 0
      - time: .266666681
        value: 0
        inSlope: 0
        outSlope: 1.40129846e-45
        tangentMode: 0
      m_PreInfinity: 2
      m_PostInfinity: 2
    attribute: m_LocalRotation.x
    path: hip/bone7/bone13
    classID: 4
    script: {fileID: 0}
  - curve:
      serializedVersion: 2
      m_Curve:
      - time: 0
        value: 0
        inSlope: 3.28102265e-39
        outSlope: 0
        tangentMode: 0
      - time: .0666666701
        value: 0
        inSlope: 0
        outSlope: 0
        tangentMode: 0
      - time: .13333334
        value: 0
        inSlope: 0
        outSlope: 0
        tangentMode: 0
      - time: .200000003
        value: 0
        inSlope: 0
        outSlope: 0
        tangentMode: 0
      - time: .266666681
        value: 0
        inSlope: 0
        outSlope: 3.28116838e-39
        tangentMode: 0
      m_PreInfinity: 2
      m_PostInfinity: 2
    attribute: m_LocalRotation.y
    path: hip/bone7/bone13
    classID: 4
    script: {fileID: 0}
  - curve:
      serializedVersion: 2
      m_Curve:
      - time: 0
        value: .722665668
        inSlope: 0
        outSlope: .0464916192
        tangentMode: 0
      - time: .0666666701
        value: .730341196
        inSlope: .0455975495
        outSlope: -.114440911
        tangentMode: 0
      - time: .13333334
        value: .711045086
        inSlope: -.11712312
        outSlope: .0438094176
        tangentMode: 0
      - time: .200000003
        value: .718308508
        inSlope: .0438094176
        outSlope: .0268220864
        tangentMode: 0
      - time: .266666681
        value: .722665668
        inSlope: .0268220864
        outSlope: 0
        tangentMode: 0
      m_PreInfinity: 2
      m_PostInfinity: 2
    attribute: m_LocalRotation.z
    path: hip/bone7/bone13
    classID: 4
    script: {fileID: 0}
  - curve:
      serializedVersion: 2
      m_Curve:
      - time: 0
        value: .691197753
        inSlope: 2.00343037
        outSlope: -.0482797585
        tangentMode: 0
      - time: .0666666701
        value: .683082521
        inSlope: -.0491738282
        outSlope: .122487538
        tangentMode: 0
      - time: .13333334
        value: .703146458
        inSlope: .118911259
        outSlope: -.0447034873
        tangentMode: 0
      - time: .200000003
        value: .695724726
        inSlope: -.0447034873
        outSlope: -.0277161561
        tangentMode: 0
      - time: .266666681
        value: .691197753
        inSlope: -.0277161561
        outSlope: 3.38719201
        tangentMode: 0
      m_PreInfinity: 2
      m_PostInfinity: 2
    attribute: m_LocalRotation.w
    path: hip/bone7/bone13
    classID: 4
    script: {fileID: 0}
  - curve:
      serializedVersion: 2
      m_Curve:
      - time: 0
        value: 0
        inSlope: 7.03736171e+22
        outSlope: 0
        tangentMode: 0
      - time: .13333334
        value: 0
        inSlope: 0
        outSlope: 0
        tangentMode: 0
      - time: .266666681
        value: 0
        inSlope: 0
        outSlope: 0
        tangentMode: 0
      m_PreInfinity: 2
      m_PostInfinity: 2
    attribute: m_LocalRotation.x
    path: hip/bone7/bone9
    classID: 4
    script: {fileID: 0}
  - curve:
      serializedVersion: 2
      m_Curve:
      - time: 0
        value: 0
        inSlope: NaN
        outSlope: 0
        tangentMode: 0
      - time: .13333334
        value: 0
        inSlope: 0
        outSlope: 0
        tangentMode: 0
      - time: .266666681
        value: 0
        inSlope: 0
        outSlope: 0
        tangentMode: 0
      m_PreInfinity: 2
      m_PostInfinity: 2
    attribute: m_LocalRotation.y
    path: hip/bone7/bone9
    classID: 4
    script: {fileID: 0}
  - curve:
      serializedVersion: 2
      m_Curve:
      - time: 0
        value: .972288311
        inSlope: NaN
        outSlope: .027716158
        tangentMode: 0
      - time: .13333334
        value: .980751157
        inSlope: .0232458096
        outSlope: -.0232458096
        tangentMode: 0
      - time: .266666681
        value: .972288311
        inSlope: -.027716158
        outSlope: 0
        tangentMode: 0
      m_PreInfinity: 2
      m_PostInfinity: 2
    attribute: m_LocalRotation.z
    path: hip/bone7/bone9
    classID: 4
    script: {fileID: 0}
  - curve:
      serializedVersion: 2
      m_Curve:
      - time: 0
        value: -.233785003
        inSlope: 8.12753109e-44
        outSlope: .115670256
        tangentMode: 0
      - time: .13333334
        value: -.195261732
        inSlope: .116564326
        outSlope: -.116564326
        tangentMode: 0
      - time: .266666681
        value: -.233785003
        inSlope: -.115670256
        outSlope: 3.38719201
        tangentMode: 0
      m_PreInfinity: 2
      m_PostInfinity: 2
    attribute: m_LocalRotation.w
    path: hip/bone7/bone9
    classID: 4
    script: {fileID: 0}
  m_EulerEditorCurves:
  - curve:
      serializedVersion: 2
      m_Curve:
      - time: 0
        value: -0
        inSlope: 0
        outSlope: 0
        tangentMode: 0
      - time: .0666666701
        value: -0
        inSlope: 0
        outSlope: 0
        tangentMode: 0
      - time: .13333334
        value: -0
        inSlope: 0
        outSlope: 0
        tangentMode: 0
      - time: .200000003
        value: -0
        inSlope: 0
        outSlope: 0
        tangentMode: 0
      - time: .266666681
        value: -0
        inSlope: 0
        outSlope: 0
        tangentMode: 0
      m_PreInfinity: 2
      m_PostInfinity: 2
    attribute: localEulerAngles.x
    path: hip/bone2
    classID: 4
    script: {fileID: 0}
  - curve:
      serializedVersion: 2
      m_Curve:
      - time: 0
        value: 0
        inSlope: 0
        outSlope: 0
        tangentMode: 0
      - time: .0666666701
        value: 0
        inSlope: 0
        outSlope: 0
        tangentMode: 0
      - time: .13333334
        value: 0
        inSlope: 0
        outSlope: 0
        tangentMode: 0
      - time: .200000003
        value: 0
        inSlope: 0
        outSlope: 0
        tangentMode: 0
      - time: .266666681
        value: 0
        inSlope: 0
        outSlope: 0
        tangentMode: 0
      m_PreInfinity: 2
      m_PostInfinity: 2
    attribute: localEulerAngles.y
    path: hip/bone2
    classID: 4
    script: {fileID: 0}
  - curve:
      serializedVersion: 2
      m_Curve:
      - time: 0
        value: 166.62999
        inSlope: 0
        outSlope: -8.5235815
        tangentMode: 0
      - time: .0666666701
        value: 165.209991
        inSlope: -8.52303219
        outSlope: -40.3669586
        tangentMode: 0
      - time: .13333334
        value: 158.47998
        inSlope: -40.3205528
        outSlope: 39.8872223
        tangentMode: 0
      - time: .200000003
        value: 165.129974
        inSlope: 39.8421898
        outSlope: 9.00360203
        tangentMode: 0
      - time: .266666681
        value: 166.62999
        inSlope: 9.00305271
        outSlope: 0
        tangentMode: 0
      m_PreInfinity: 2
      m_PostInfinity: 2
    attribute: localEulerAngles.z
    path: hip/bone2
    classID: 4
    script: {fileID: 0}
  - curve:
      serializedVersion: 2
      m_Curve:
      - time: 0
        value: -0
        inSlope: 0
        outSlope: 0
        tangentMode: 0
      - time: .0666666701
        value: -0
        inSlope: 0
        outSlope: 0
        tangentMode: 0
      - time: .13333334
        value: -0
        inSlope: 0
        outSlope: 0
        tangentMode: 0
      - time: .200000003
        value: -0
        inSlope: 0
        outSlope: 0
        tangentMode: 0
      - time: .266666681
        value: -0
        inSlope: 0
        outSlope: 0
        tangentMode: 0
      m_PreInfinity: 2
      m_PostInfinity: 2
    attribute: localEulerAngles.x
    path: hip/bone
    classID: 4
    script: {fileID: 0}
  - curve:
      serializedVersion: 2
      m_Curve:
      - time: 0
        value: 0
        inSlope: 0
        outSlope: 0
        tangentMode: 0
      - time: .0666666701
        value: 0
        inSlope: 0
        outSlope: 0
        tangentMode: 0
      - time: .13333334
        value: 0
        inSlope: 0
        outSlope: 0
        tangentMode: 0
      - time: .200000003
        value: 0
        inSlope: 0
        outSlope: 0
        tangentMode: 0
      - time: .266666681
        value: 0
        inSlope: 0
        outSlope: 0
        tangentMode: 0
      m_PreInfinity: 2
      m_PostInfinity: 2
    attribute: localEulerAngles.y
    path: hip/bone
    classID: 4
    script: {fileID: 0}
  - curve:
      serializedVersion: 2
      m_Curve:
      - time: 0
        value: 236.960007
        inSlope: 0
        outSlope: 12.0650673
        tangentMode: 0
      - time: .0666666701
        value: 238.970001
        inSlope: 12.0631437
        outSlope: 14.7571812
        tangentMode: 0
      - time: .13333334
        value: 241.430023
        inSlope: 14.7549849
        outSlope: -49.3604889
        tangentMode: 0
      - time: .200000003
        value: 233.200027
        inSlope: -49.2759094
        outSlope: 22.5686302
        tangentMode: 0
      - time: .266666681
        value: 236.960007
        inSlope: 22.5603867
        outSlope: 0
        tangentMode: 0
      m_PreInfinity: 2
      m_PostInfinity: 2
    attribute: localEulerAngles.z
    path: hip/bone
    classID: 4
    script: {fileID: 0}
  - curve:
      serializedVersion: 2
      m_Curve:
      - time: 0
        value: -0
        inSlope: 0
        outSlope: 0
        tangentMode: 0
      - time: .0666666701
        value: -0
        inSlope: 0
        outSlope: 0
        tangentMode: 0
      - time: .200000003
        value: -0
        inSlope: 0
        outSlope: 0
        tangentMode: 0
      - time: .266666681
        value: -0
        inSlope: 0
        outSlope: 0
        tangentMode: 0
      m_PreInfinity: 2
      m_PostInfinity: 2
    attribute: localEulerAngles.x
    path: hip/bone2/bone3
    classID: 4
    script: {fileID: 0}
  - curve:
      serializedVersion: 2
      m_Curve:
      - time: 0
        value: 0
        inSlope: 0
        outSlope: 0
        tangentMode: 0
      - time: .0666666701
        value: 0
        inSlope: 0
        outSlope: 0
        tangentMode: 0
      - time: .200000003
        value: 0
        inSlope: 0
        outSlope: 0
        tangentMode: 0
      - time: .266666681
        value: 0
        inSlope: 0
        outSlope: 0
        tangentMode: 0
      m_PreInfinity: 2
      m_PostInfinity: 2
    attribute: localEulerAngles.y
    path: hip/bone2/bone3
    classID: 4
    script: {fileID: 0}
  - curve:
      serializedVersion: 2
      m_Curve:
      - time: 0
        value: 26.9300003
        inSlope: 0
        outSlope: 31.3900585
        tangentMode: 0
      - time: .0666666701
        value: 32.1600037
        inSlope: 31.368351
        outSlope: -27.5880184
        tangentMode: 0
      - time: .200000003
        value: 22.9599991
        inSlope: -27.5287037
        outSlope: 23.8284416
        tangentMode: 0
      - time: .266666681
        value: 26.9300003
        inSlope: 23.8188248
        outSlope: 0
        tangentMode: 0
      m_PreInfinity: 2
      m_PostInfinity: 2
    attribute: localEulerAngles.z
    path: hip/bone2/bone3
    classID: 4
    script: {fileID: 0}
  - curve:
      serializedVersion: 2
      m_Curve:
      - time: 0
        value: -0
        inSlope: 0
        outSlope: 0
        tangentMode: 0
      - time: .0666666701
        value: -0
        inSlope: 0
        outSlope: 0
        tangentMode: 0
      - time: .200000003
        value: -0
        inSlope: 0
        outSlope: 0
        tangentMode: 0
      - time: .266666681
        value: -0
        inSlope: 0
        outSlope: 0
        tangentMode: 0
      m_PreInfinity: 2
      m_PostInfinity: 2
    attribute: localEulerAngles.x
    path: hip/bone/bone5
    classID: 4
    script: {fileID: 0}
  - curve:
      serializedVersion: 2
      m_Curve:
      - time: 0
        value: 0
        inSlope: 0
        outSlope: 0
        tangentMode: 0
      - time: .0666666701
        value: 0
        inSlope: 0
        outSlope: 0
        tangentMode: 0
      - time: .200000003
        value: 0
        inSlope: 0
        outSlope: 0
        tangentMode: 0
      - time: .266666681
        value: 0
        inSlope: 0
        outSlope: 0
        tangentMode: 0
      m_PreInfinity: 2
      m_PostInfinity: 2
    attribute: localEulerAngles.y
    path: hip/bone/bone5
    classID: 4
    script: {fileID: 0}
  - curve:
      serializedVersion: 2
      m_Curve:
      - time: 0
        value: 333.910004
        inSlope: 0
        outSlope: 75.4766006
        tangentMode: 0
      - time: .0666666701
        value: 346.48999
        inSlope: 75.1743546
        outSlope: 23.6611919
        tangentMode: 0
      - time: .200000003
        value: 354.380005
        inSlope: 23.6241188
        outSlope: -122.723534
        tangentMode: 0
      - time: .266666681
        value: 333.910004
        inSlope: -121.43103
        outSlope: 0
        tangentMode: 0
      m_PreInfinity: 2
      m_PostInfinity: 2
    attribute: localEulerAngles.z
    path: hip/bone/bone5
    classID: 4
    script: {fileID: 0}
  - curve:
      serializedVersion: 2
      m_Curve:
      - time: 0
        value: -0
        inSlope: 0
        outSlope: 0
        tangentMode: 0
      - time: .0666666701
        value: -0
        inSlope: 0
        outSlope: 0
        tangentMode: 0
      - time: .13333334
        value: -0
        inSlope: 0
        outSlope: 0
        tangentMode: 0
      - time: .200000003
        value: -0
        inSlope: 0
        outSlope: 0
        tangentMode: 0
      - time: .266666681
        value: -0
        inSlope: 0
        outSlope: 0
        tangentMode: 0
      m_PreInfinity: 2
      m_PostInfinity: 2
    attribute: localEulerAngles.x
    path: hip/bone7/bone13
    classID: 4
    script: {fileID: 0}
  - curve:
      serializedVersion: 2
      m_Curve:
      - time: 0
        value: 0
        inSlope: 0
        outSlope: 0
        tangentMode: 0
      - time: .0666666701
        value: 0
        inSlope: 0
        outSlope: 0
        tangentMode: 0
      - time: .13333334
        value: 0
        inSlope: 0
        outSlope: 0
        tangentMode: 0
      - time: .200000003
        value: 0
        inSlope: 0
        outSlope: 0
        tangentMode: 0
      - time: .266666681
        value: 0
        inSlope: 0
        outSlope: 0
        tangentMode: 0
      m_PreInfinity: 2
      m_PostInfinity: 2
    attribute: localEulerAngles.y
    path: hip/bone7/bone13
    classID: 4
    script: {fileID: 0}
  - curve:
      serializedVersion: 2
      m_Curve:
      - time: 0
        value: 92.5499954
        inSlope: 0
        outSlope: 7.68306589
        tangentMode: 0
      - time: .0666666701
        value: 93.8300018
        inSlope: 7.68306589
        outSlope: -19.1354561
        tangentMode: 0
      - time: .13333334
        value: 90.640007
        inSlope: -19.1307888
        outSlope: 7.13858652
        tangentMode: 0
      - time: .200000003
        value: 91.8300018
        inSlope: 7.13858652
        outSlope: 4.32155323
        tangentMode: 0
      - time: .266666681
        value: 92.5499954
        inSlope: 4.32155323
        outSlope: 0
        tangentMode: 0
      m_PreInfinity: 2
      m_PostInfinity: 2
    attribute: localEulerAngles.z
    path: hip/bone7/bone13
    classID: 4
    script: {fileID: 0}
  - curve:
      serializedVersion: 2
      m_Curve:
      - time: 0
        value: -0
        inSlope: 0
        outSlope: 0
        tangentMode: 0
      - time: .13333334
        value: -0
        inSlope: 0
        outSlope: 0
        tangentMode: 0
      m_PreInfinity: 2
      m_PostInfinity: 2
    attribute: localEulerAngles.x
    path: hip/bone7/bone8
    classID: 4
    script: {fileID: 0}
  - curve:
      serializedVersion: 2
      m_Curve:
      - time: 0
        value: 0
        inSlope: 0
        outSlope: 0
        tangentMode: 0
      - time: .13333334
        value: 0
        inSlope: 0
        outSlope: 0
        tangentMode: 0
      m_PreInfinity: 2
      m_PostInfinity: 2
    attribute: localEulerAngles.y
    path: hip/bone7/bone8
    classID: 4
    script: {fileID: 0}
  - curve:
      serializedVersion: 2
      m_Curve:
      - time: 0
        value: 162.080002
        inSlope: 0
        outSlope: -4.38041258
        tangentMode: 0
      - time: .13333334
        value: 160.619995
        inSlope: -4.38027525
        outSlope: 0
        tangentMode: 0
      m_PreInfinity: 2
      m_PostInfinity: 2
    attribute: localEulerAngles.z
    path: hip/bone7/bone8
    classID: 4
    script: {fileID: 0}
  - curve:
      serializedVersion: 2
      m_Curve:
      - time: 0
        value: -0
        inSlope: 0
        outSlope: 0
        tangentMode: 0
      - time: .13333334
        value: -0
        inSlope: 0
        outSlope: 0
        tangentMode: 0
      - time: .266666681
        value: -0
        inSlope: 0
        outSlope: 0
        tangentMode: 0
      m_PreInfinity: 2
      m_PostInfinity: 2
    attribute: localEulerAngles.x
    path: hip/bone7/bone9
    classID: 4
    script: {fileID: 0}
  - curve:
      serializedVersion: 2
      m_Curve:
      - time: 0
        value: 0
        inSlope: 0
        outSlope: 0
        tangentMode: 0
      - time: .13333334
        value: 0
        inSlope: 0
        outSlope: 0
        tangentMode: 0
      - time: .266666681
        value: 0
        inSlope: 0
        outSlope: 0
        tangentMode: 0
      m_PreInfinity: 2
      m_PostInfinity: 2
    attribute: localEulerAngles.y
    path: hip/bone7/bone9
    classID: 4
    script: {fileID: 0}
  - curve:
      serializedVersion: 2
      m_Curve:
      - time: 0
        value: 207.040009
        inSlope: 0
        outSlope: -13.560545
        tangentMode: 0
      - time: .13333334
        value: 202.520004
        inSlope: -13.5536776
        outSlope: 13.5606823
        tangentMode: 0
      - time: .266666681
        value: 207.040009
        inSlope: 13.5535402
        outSlope: 0
        tangentMode: 0
      m_PreInfinity: 2
      m_PostInfinity: 2
    attribute: localEulerAngles.z
    path: hip/bone7/bone9
    classID: 4
    script: {fileID: 0}
  - curve:
      serializedVersion: 2
      m_Curve:
      - time: 0
        value: -0
        inSlope: 0
        outSlope: -0
        tangentMode: 0
      m_PreInfinity: 2
      m_PostInfinity: 2
    attribute: localEulerAngles.x
    path: hip/bone7/bone12
    classID: 4
    script: {fileID: 0}
  - curve:
      serializedVersion: 2
      m_Curve:
      - time: 0
        value: -0
        inSlope: 0
        outSlope: -0
        tangentMode: 0
      m_PreInfinity: 2
      m_PostInfinity: 2
    attribute: localEulerAngles.y
    path: hip/bone7/bone12
    classID: 4
    script: {fileID: 0}
  - curve:
      serializedVersion: 2
      m_Curve:
      - time: 0
        value: 13.3300257
        inSlope: 0
        outSlope: -0
        tangentMode: 0
      m_PreInfinity: 2
      m_PostInfinity: 2
    attribute: localEulerAngles.z
    path: hip/bone7/bone12
    classID: 4
    script: {fileID: 0}
  m_HasGenericRootTransform: 0
  m_HasMotionFloatCurves: 0
  m_GenerateMotionCurves: 0
  m_Events: []
