%YAML 1.1
%TAG !u! tag:unity3d.com,2011:
--- !u!21 &2100000
Material:
  serializedVersion: 6
  m_ObjectHideFlags: 0
  m_PrefabParentObject: {fileID: 0}
  m_PrefabInternal: {fileID: 0}
  m_Name: StandardLightMaterialGradient
  m_Shader: {fileID: 4800000, guid: 0e834bebf3661fe44b788f5af448b9de, type: 3}
  m_ShaderKeywords: 
  m_LightmapFlags: 5
  m_CustomRenderQueue: -1
  stringTagMap: {}
  m_SavedProperties:
    serializedVersion: 2
    m_TexEnvs:
      data:
        first:
          name: _MainTex
        second:
          m_Texture: {fileID: 0}
          m_Scale: {x: 1, y: 1}
          m_Offset: {x: 0, y: 0}
    m_Floats:
      data:
        first:
          name: _UVXOffset
        second: 0
      data:
        first:
          name: _UVYOffset
        second: 0
      data:
        first:
          name: _UVXScale
        second: 1.03
      data:
        first:
          name: _UVYScale
        second: 1
      data:
        first:
          name: _Offset
        second: -16.96
      data:
        first:
          name: _InvFade
        second: 1
    m_Colors:
      data:
        first:
          name: _Color
        second: {r: 0.35294116, g: 0.62515205, b: 1, a: 0.023529412}
      data:
        first:
          name: _TintColor
        second: {r: 0.8050233, g: 0.9852941, b: 0.39121974, a: 1}
