%YAML 1.1
%TAG !u! tag:unity3d.com,2011:
--- !u!114 &11400000
MonoBehaviour:
  m_ObjectHideFlags: 0
  m_PrefabParentObject: {fileID: 0}
  m_PrefabInternal: {fileID: 0}
  m_GameObject: {fileID: 0}
  m_Enabled: 1
  m_EditorHideFlags: 0
  m_Script: {fileID: 11500000, guid: f1b3b4b945939a54ea0b23d3396115fb, type: 3}
  m_Name: Flydata
  m_EditorClassIdentifier: 
  atlasAssets:
  - {fileID: 11400000, guid: 7de5ccb64ff9a9645a14f6ceea952e5d, type: 2}
  skeletonJSON: {fileID: 4900000, guid: 422ba10fec04dfa46ade0dd2478a2f06, type: 3}
  scale: .00600000005
  fromAnimation: []
  toAnimation: []
  duration: []
  defaultMix: 0
  controller: {fileID: 0}
