%YAML 1.1
%TAG !u! tag:unity3d.com,2011:
--- !u!74 &7400000
AnimationClip:
  m_ObjectHideFlags: 0
  m_PrefabParentObject: {fileID: 0}
  m_PrefabInternal: {fileID: 0}
  m_Name: walkingEnemy
  serializedVersion: 6
  m_Legacy: 0
  m_Compressed: 0
  m_UseHighQualityCurve: 1
  m_RotationCurves: []
  m_CompressedRotationCurves: []
  m_PositionCurves: []
  m_ScaleCurves: []
  m_FloatCurves: []
  m_PPtrCurves:
  - curve:
    - time: 0
      value: {fileID: 21300000, guid: 7579552163694c74bbfde7d5b80a4b9d, type: 3}
    - time: .0833333358
      value: {fileID: 21300000, guid: 0ca7501a97ad28041b2a8993bb1382cd, type: 3}
    - time: .166666672
      value: {fileID: 21300000, guid: 132480cd85c5a5b4d9bdf5fecd1eba88, type: 3}
    - time: .25
      value: {fileID: 21300000, guid: e151887673462a24ab62a38f9ad38cbc, type: 3}
    - time: .333333343
      value: {fileID: 21300000, guid: 726c8ac8f125e6544b92ad6dea52ef4b, type: 3}
    - time: .416666657
      value: {fileID: 21300000, guid: 334f6d70bcdded34c870d38831806658, type: 3}
    - time: .5
      value: {fileID: 21300000, guid: 334f6d70bcdded34c870d38831806658, type: 3}
    - time: .583333313
      value: {fileID: 21300000, guid: f23b757f4083e5a4b9e65e2cef319de3, type: 3}
    - time: .666666687
      value: {fileID: 21300000, guid: d011c5234aec4c44f917d2be5cf1241a, type: 3}
    attribute: m_Sprite
    path: 
    classID: 212
    script: {fileID: 0}
  m_SampleRate: 12
  m_WrapMode: 0
  m_Bounds:
    m_Center: {x: 0, y: 0, z: 0}
    m_Extent: {x: 0, y: 0, z: 0}
  m_ClipBindingConstant:
    genericBindings:
    - path: 0
      attribute: 0
      script: {fileID: 0}
      classID: 212
      customType: 23
      isPPtrCurve: 1
    pptrCurveMapping:
    - {fileID: 21300000, guid: 7579552163694c74bbfde7d5b80a4b9d, type: 3}
    - {fileID: 21300000, guid: 0ca7501a97ad28041b2a8993bb1382cd, type: 3}
    - {fileID: 21300000, guid: 132480cd85c5a5b4d9bdf5fecd1eba88, type: 3}
    - {fileID: 21300000, guid: e151887673462a24ab62a38f9ad38cbc, type: 3}
    - {fileID: 21300000, guid: 726c8ac8f125e6544b92ad6dea52ef4b, type: 3}
    - {fileID: 21300000, guid: 334f6d70bcdded34c870d38831806658, type: 3}
    - {fileID: 21300000, guid: 334f6d70bcdded34c870d38831806658, type: 3}
    - {fileID: 21300000, guid: f23b757f4083e5a4b9e65e2cef319de3, type: 3}
    - {fileID: 21300000, guid: d011c5234aec4c44f917d2be5cf1241a, type: 3}
  m_AnimationClipSettings:
    serializedVersion: 2
    m_StartTime: 0
    m_StopTime: .75
    m_OrientationOffsetY: 0
    m_Level: 0
    m_CycleOffset: 0
    m_LoopTime: 1
    m_LoopBlend: 0
    m_LoopBlendOrientation: 0
    m_LoopBlendPositionY: 0
    m_LoopBlendPositionXZ: 0
    m_KeepOriginalOrientation: 0
    m_KeepOriginalPositionY: 1
    m_KeepOriginalPositionXZ: 0
    m_HeightFromFeet: 0
    m_Mirror: 0
  m_EditorCurves: []
  m_EulerEditorCurves: []
  m_HasGenericRootTransform: 0
  m_HasMotionFloatCurves: 0
  m_GenerateMotionCurves: 0
  m_Events: []
